-------------------------------------------------------------------------------
Test set: CEP.uk.ac.aston.cep.drones.json.AppTest
-------------------------------------------------------------------------------
Tests run: 1, Failures: 0, Errors: 0, Skipped: 0, Time elapsed: 0.006 sec
